\relax 
\providecommand\hyper@newdestlabel[2]{}
\providecommand\HyperFirstAtBeginDocument{\AtBeginDocument}
\HyperFirstAtBeginDocument{\ifx\hyper@anchor\@undefined
\global\let\oldcontentsline\contentsline
\gdef\contentsline#1#2#3#4{\oldcontentsline{#1}{#2}{#3}}
\global\let\oldnewlabel\newlabel
\gdef\newlabel#1#2{\newlabelxx{#1}#2}
\gdef\newlabelxx#1#2#3#4#5#6{\oldnewlabel{#1}{{#2}{#3}}}
\AtEndDocument{\ifx\hyper@anchor\@undefined
\let\contentsline\oldcontentsline
\let\newlabel\oldnewlabel
\fi}
\fi}
\global\let\hyper@last\relax 
\gdef\HyperFirstAtBeginDocument#1{#1}
\providecommand\HyField@AuxAddToFields[1]{}
\providecommand\HyField@AuxAddToCoFields[2]{}
\@writefile{toc}{\contentsline {section}{\numberline {1}Softwares necess\IeC {\'a}rios}{1}{section.1}}
\@writefile{toc}{\contentsline {paragraph}{Clicando nos links abaixo, baixe os softwares indicados e deixe-os em um cart\IeC {\~a}o de mem\IeC {\'o}ria (\textit  {SD Card}), para facilitar o procedimento}{1}{section*.2}}
\@writefile{toc}{\contentsline {section}{\numberline {2}Passo-a-passo do procedimento}{1}{section.2}}
\@writefile{lof}{\contentsline {figure}{\numberline {1}{\ignorespaces Tela de cadastro do FNDE}}{2}{figure.1}}
\newlabel{telaFnde}{{1}{2}{Tela de cadastro do FNDE}{figure.1}{}}
\newlabel{item:googleUnlock}{{4}{2}{Passo-a-passo do procedimento}{Item.4}{}}
\@writefile{lof}{\contentsline {figure}{\numberline {2}{\ignorespaces Desbloqueio de tela com busca no Google}}{3}{figure.2}}
\newlabel{fig:googleUnlock}{{2}{3}{Desbloqueio de tela com busca no Google}{figure.2}{}}
\newlabel{item:buscaGoogle}{{6}{3}{Passo-a-passo do procedimento}{Item.6}{}}
\@writefile{lof}{\contentsline {figure}{\numberline {3}{\ignorespaces Gerenciador de arquivos}}{3}{figure.3}}
\newlabel{gerenciadorArquivos}{{3}{3}{Gerenciador de arquivos}{figure.3}{}}
\newlabel{item:es-file-explorer}{{7}{3}{Passo-a-passo do procedimento}{Item.7}{}}
\@writefile{lof}{\contentsline {figure}{\numberline {4}{\ignorespaces Configura\IeC {\c c}\IeC {\~o}es de Instala\IeC {\c c}\IeC {\~a}o}}{4}{figure.4}}
\newlabel{instalacaoBloqueada}{{4}{4}{Configurações de Instalação}{figure.4}{}}
\@writefile{lof}{\contentsline {figure}{\numberline {5}{\ignorespaces Ativa\IeC {\c c}\IeC {\~a}o de Fontes desconhecidas}}{4}{figure.5}}
\newlabel{fontesDesconhecidas}{{5}{4}{Ativação de Fontes desconhecidas}{figure.5}{}}
\@writefile{lof}{\contentsline {figure}{\numberline {6}{\ignorespaces Ativa\IeC {\c c}\IeC {\~a}o de depura\IeC {\c c}\IeC {\~a}o USB}}{5}{figure.6}}
\newlabel{depuracaoUsb}{{6}{5}{Ativação de depuração USB}{figure.6}{}}
\newlabel{item:kingoROOT}{{12}{5}{Passo-a-passo do procedimento}{Item.12}{}}
\@writefile{lof}{\contentsline {figure}{\numberline {7}{\ignorespaces Processo de ROOT}}{6}{figure.7}}
\newlabel{processoROOT}{{7}{6}{Processo de ROOT}{figure.7}{}}
\@writefile{lof}{\contentsline {figure}{\numberline {8}{\ignorespaces Instalar Removedor de App de Sistema }}{6}{figure.8}}
\newlabel{instalarRemovedor}{{8}{6}{Instalar Removedor de App de Sistema}{figure.8}{}}
\newlabel{item:removerAppSistema}{{14}{6}{Passo-a-passo do procedimento}{Item.14}{}}
\@writefile{lof}{\contentsline {figure}{\numberline {9}{\ignorespaces Configura\IeC {\c c}\IeC {\~a}o do removedor de aplicativos de sistema}}{7}{figure.9}}
\newlabel{removerAppSistema}{{9}{7}{Configuração do removedor de aplicativos de sistema}{figure.9}{}}
\@writefile{lof}{\contentsline {figure}{\numberline {10}{\ignorespaces Remo\IeC {\c c}\IeC {\~a}o de aplicativos}}{8}{figure.10}}
\newlabel{removerAppSistema1}{{10}{8}{Remoção de aplicativos}{figure.10}{}}
\@writefile{lof}{\contentsline {figure}{\numberline {11}{\ignorespaces Remo\IeC {\c c}\IeC {\~a}o de Arquivos}}{9}{figure.11}}
\newlabel{fig:remocaoArquivos}{{11}{9}{Remoção de Arquivos}{figure.11}{}}
\@writefile{lof}{\contentsline {figure}{\numberline {12}{\ignorespaces Resultado da busca por arquivos}}{9}{figure.12}}
\newlabel{fig:buscaArquivos}{{12}{9}{Resultado da busca por arquivos}{figure.12}{}}
\@writefile{lof}{\contentsline {figure}{\numberline {13}{\ignorespaces Resultado}}{10}{figure.13}}
\newlabel{fig:resultado}{{13}{10}{Resultado}{figure.13}{}}
\@writefile{toc}{\contentsline {section}{\numberline {3}Como realizar um Hard Reset}{11}{section.3}}
\newlabel{hard-reset}{{3}{11}{Como realizar um Hard Reset}{section.3}{}}
